"faq_key"	"faq_category"	"faq_subcategory"	"faq_question"
29	1	3	"国外也可以使用吗？"
51	3	3	"当网速达不到推荐宽带环境（上行128kbps、下行384kbps以上）时会怎么样呢？"
75	2	3	"是否有初期费用？"
77	2	3	"取消账户后想要重新运行此项服务，是否需要再次支付初期安装费用？"
78	1	3	"基于一份合同是否能同时进行多个Seminar的会议？"
1101	1	1	"申请前，可以免费试用吗？"
1102	1	1	"如果我丢失了ID和密码该怎样做？"
1103	1	1	"在Mac上可以使用吗？"
1104	1	1	"网络无法使用，但是想在内网使用V-CUBE Meeting可以吗？"
1105	1	1	"可以借给我一个摄像头吗?"
1106	1	1	"安全方面可靠吗？"
1107	1	1	"是否有最低使用期限等与使用期限有关的限制？"
1108	1	1	"在海外也可以使用吗？"
1201	1	2	"ID管理是按照每个用户来进行吗？"
1202	1	2	"原则上1份合同（１间会议室）可以在10个会议点间召开会议，如果是10个以上会议点，还可以召开会议吗？"
1203	1	2	"什么是旁听功能？"
1204	1	2	"当和公司外部的人开会，不想告诉对方ID・密码时需要怎样做？"
1205	1	2	"没有ID的用户也可以参加吗？"
1206	1	2	"当只有一个账号ID&密码时可以同时召开多个会议吗？"
1207	1	2	"可以显示和共享自己PC上运行的文件或应用程序的界面吗？"
1208	1	2	"可以复制并粘贴白板上的内容吗？"
1209	1	2	"在白板上可以粘贴哪种资料？"
1210	1	2	"对白板上粘贴的资料有没有容量限制呢？"
1211	1	2	"希望了解一下和其他公司视频会议服务的区别。"
1212	1	2	"使用V-CUBE Meeting需要哪些设备？"
1213	1	2	"如果ASP服务器发生故障了会怎么样，我们该怎样对应？"
1214	1	2	"想在购买前试用会议室包，可以借出吗？"
1215	1	2	"如果已经有了之前购买的电视会议系统，还可以使用V-CUBE Meeting吗？"
1216	1	2	"通过免费试用账户也可以连接H.323TV会议系统吗?"
1217	1	2	"10个会议点使用时所需带宽是多少？"
1218	1	2	"帧速率是多少？"
2201	2	2	"初期费用多少钱？"
2202	2	2	"想了解会议室包的大概费用。"
2203	2	2	"想了解一下价格体系的详细情况。"
2204	2	2	"解除合同后如果想再次使用，是否还需要初始费用？"
2205	2	2	"以房间为单位进行收费的话，对使用者人数有限制吗？"
3101	3	1	"是否支持通过防火墙（反向代理或NAT）的连接？"
3102	3	1	"视频和语音使用哪种编解码器？"
3103	3	1	"使用的是哪种通信协议？"
3104	3	1	"视频、语音、数据的传输，登陆ID等是采取哪种安全对策？"
3105	3	1	"可以使用哪种摄像头？有没有推荐的摄像头？"
3106	3	1	"我想知道推荐的运行环境。"
3107	3	1	"我想知道推荐的运行环境。"
3108	3	1	"如果网速低于推荐宽带环境时（上行512kbps/下行256kbps），会发生什么情况？"
4101	4	1	"正在检测网速，无法进入会议室。"
4102	4	1	"在检测网速的界面中显示错误（代理服务器）"
4103	4	1	"延迟严重，无法召开会议。"
4104	4	1	"自己的视频没有显示"
4105	4	1	"不显示对方视频"
4106	4	1	"对方听不到自己的声音"
4107	4	1	"无法听到其他参会者的声音。(没有声音）"
4108	4	1	"声音太小我该如何操作？"
4109	4	1	"自己的声音出现回音，如何才能消除回音？"
4110	4	1	"对方杂音过大，听不清。"
4111	4	1	"点击后仍无法显示页面。（弹出框被拦截）"
4112	4	1	"视频的纵横比例出现异常"
5101	5	1	"是否有推荐的麦克风？"
5102	5	1	"会议中进行其他操作的时候，会出现会议运行缓慢的情况吗？"
5103	5	1	"无法显示自己的图像。"
5104	5	1	"无法看到其他参会者的视频"
5105	5	1	"其他参会者无法听到自己的声音"
5106	5	1	"无法听到其他参会者的声音。"
5107	5	1	"声音太小，该如何解决？"
5108	5	1	"自己的声音有回声，有什么解决办法？"
