"member_id","member_pass","member_name","member_name_kana","member_group_name","member_email","timezone","lang","member_type","room_key"
"member001","member001","member001","かな1","GROUP1","sample@example.com",9,"ja","",""
"member002","member002","member002","かな2","GROUP2","sample@example.com",0,"zh","centre",""
"member003","member003","member003","かな3","GROUP3","sample@example.com",-7,"en","terminal","example-1-bf35"
