お客様ログ
インバウンド窓口名：{if $inbound_info.inbound_name}{$inbound_info.inbound_name|escape:'html'}{else}窓口{$inbound_info.inbound_sort}{/if}
検索期間：{$start_date}から{$end_date}まで
"参加者名","IPアドレス","クリック時間","入室日時","会議時間（分）"
{if $list_data}
{foreach from=$list_data item=row}
{$row.participant_name},{$row.remote_addr},{$row.click_time},{$row.meeting_start_time} {if $row.meeting_start_time}(GMT {if $time_zone >= 0}+{/if}{$time_zone}){/if},{$row.meeting_use_minute}
{/foreach}
{/if}
