━━━━━━━━━━━━━━━━━━━━━━━━━━━━━━
V-CUBEミーティングからのお知らせ
━━━━━━━━━━━━━━━━━━━━━━━━━━━━━━
Web会議システムのご利用ありがとうございます。

お問い合わせを承りました。
回答まで今しばらくお待ちください。

------------------------------
お問い合わせ内容
------------------------------
■ご質問の種類
{$subject}

■ご質問の詳細
{$body}

━━━━━━━━━━━━━━━━━━━━━━━━━━━━━━
■V-CUBEミーティング
<{$base_url}>
■開発・運営: 
株式会社ブイキューブ <http://www.vcube.co.jp/>
〒153-0051 東京都目黒区上目黒2-1-1 中目黒GTタワー20F
■カスタマーサポートセンター
電話番号: 0570-002192（24時間365日電話受付）
E-mail: <vsupport@vcube.co.jp>
━━━━━━━━━━━━━━━━━━━━━━━━━━━━━━
