━━━━━━━━━━━━━━━━━━━━━━━━━━━━━━
V-CUBEミーティングからのお知らせ
━━━━━━━━━━━━━━━━━━━━━━━━━━━━━━
{$info.sender}様からご招待のあった、
下記のWeb会議が中止されましたのでご案内いたします。

■会議名
{$info.reservation_name}

■予約されていた開催日時
{$guest.starttime} ～ {$guest.endtime} (GMT {if $guest.timezone >= 0}+{/if}{$guest.timezone})

------------------------------
{$info.sender}様からのメッセージ
------------------------------
{$info.mail_body}

※このメールはシステムから自動送信されています。
　この会議についてのお問い合わせは、下記のアドレス宛にご連絡下さい。
　<{$info.sender_mail}>

------------------------------
V-CUBEミーティングとは？
------------------------------
Web会議システム「V-CUBEミーティング」は、
インターネット回線とパソコンさえあればカンタンに会議ができます。

相手の顔を見て話ができるだけでなく、1つの資料を全員で共有したり、
会議を録画して議事録として利用することができます。

━━━━━━━━━━━━━━━━━━━━━━━━━━━━━━
■V-CUBEミーティング
<{$base_url}>
■開発・運営:
株式会社ブイキューブ <http://www.vcube.co.jp/>
■カスタマーサポートセンター　0570-07-0710
受付時間：平日 09:00～17:00
━━━━━━━━━━━━━━━━━━━━━━━━━━━━━━
