■━━━━━━━━━━━━━━━━━━━━━━━━━━━━━━━━━━■
　　　　　　　ウェブテレビ会議システム "V-CUBE ミーティング"
　　　　　　　　　トライアルアカウント申し込みを受け付けました。
■━━━━━━━━━━━━━━━━━━━━━━━━━━━━━━━━━━■
　　　　　　　　　　　{$trial_name}様
　　　　　　　この度は、申し込み頂きましてありがとうございます。
　　　このメールでは、トライアルアカウント発行手続きは、まだ完了致しておりません。
　　　　　下記 URL をクリックし、発行手続きを完了してください。

　　　　　{$base_url}/mobile/regist/{$regist_key}

※URLが途中で改行されるなどして、クリックできない場合はURLを全てコピーしてブラウザに貼り付けてください。
 ======================================================================

　　　ウェブテレビ会議システム「V-CUBE ミーティング」
      {$base_url}
 　　　
　　　お問い合わせ先
      vsupport@vcube.co.jp

　　　開発・運営：株式会社ブイキューブ
      http://www.vcube.com/
　　　
      TEL: 0570-00-2192  FAX: 03-5501-9676
　　　〒153-0051　東京都目黒区上目黒2-1-1 中目黒GTタワー20F

 ======================================================================
