━━━━━━━━━━━━━━━━━━━━━━━━━━━━━━
来自V-CUBE Meeting的通知
━━━━━━━━━━━━━━━━━━━━━━━━━━━━━━
欢迎使用视频会议系统。
已向以下会议中发送了共享记事簿的内容。
请确认附件。

■会议名称
{$meeting_name}

■召开时间
{$meeting_start_datetime} ～

------------------------------
什么是V-CUBE Meeting？
------------------------------
网络视频会议系统「V-CUBE Meeting」只要有网络和电脑就可以简便地召开会议。
不仅可以看着对方的表情进行交流，还可以将资料进行全员共享，录制会议，并作为会议记录使用。


━━━━━━━━━━━━━━━━━━━━━━━━━━━━━━
■V-CUBE Meeting
<{$smarty.const.N2MY_BASE_URL}>
■开发・运营:
V-cube株式会社 <http://www.vcube.com/>
〒153-0051 东京都目黑区上目黑2-1-1 中目黑GT Tower 20F
■客服中心
电话号码: 0570-002192（24小时365天电话支持）
E-mail: <vsupport@vcube.co.jp>
━━━━━━━━━━━━━━━━━━━━━━━━━━━━━━