■━━━━━━━━━━━━━━━━━━━━━━━━━━━━━━━━━━■
           {$info.sender} 様からウェブテレビ会議中止のお知らせ
■━━━━━━━━━━━━━━━━━━━━━━━━━━━━━━━━━━■
         ウェブテレビ会議システム "V-CUBE ミーティング" を利用した
                        会議中止のお知らせです。
               予約されていた下記の会議が中止されました。
━━━━━━━━━━━━━━━━━━━━━━━━━━━━━━━━━━━━

　■ 会議名
　　 {$info.reservation_name}

　■ 予約されていた開催日時
　　 {$guest.starttime}
　　 ～ {$guest.endtime} (GMT {if $guest.timezone >= 0}+{/if}{$guest.timezone})

　■ {$info.sender} 様からのメッセージ
　　 {$info.mail_body}

　■ 招待内容のお問い合わせ先
　　 {$info.sender_mail}

■━━━━━━━━━━━━━━━━━━━━━━━━━━━━━━━━━━■
　　　  ウェブテレビ会議システム "V-CUBE ミーティング" とは？
■━━━━━━━━━━━━━━━━━━━━━━━━━━━━━━━━━━■

　　"V-CUBE ミーティング" は、インターネット上の仮想会議室です。
　　指定したアドレスにアクセスするだけで、遠く離れた場所にいても
　　お互いの顔を見ながら映像と音声によるウェブテレビ会議が可能です。
　
　　また、共有ホワイトボード機能、会議の録画機能、デスクトップ共有機能、
　　プレゼンス機能等、会議を円滑に進めるための機能が満載です。

 ======================================================================

  　 ■ウェブテレビ会議システム「V-CUBE ミーティング」
　　 {$base_url}

　　 ■開発・運営：株式会社ブイキューブ
　　 http://www.vcube.co.jp/
 　　　
　　 ■カスタマーサポートセンター　0570-002192（24時間365日電話受付）

 ======================================================================
