"faq_key"	"faq_category"	"faq_subcategory"	"faq_question"
29	1	3	
51	3	3	
75	2	3	"มีค่าใช้จ่ายเริ่มต้น?"
77	2	3	"ฉันจะต้องจ่ายค่าเริ่มต้นอีกครั้งเพื่อเริ่มต้นบริการเมื่อฉันปิดบัญชี?"
78	1	3	
1101	1	1	"เป็นไปได้หรือไม่ที่จะทดลองใช้บริการก่อนที่จะซื้อมัน"
1102	1	1	"ฉันควรทำอย่างไร หากฉันลืม ID ผู้ใช้ และรหัสผ่านของฉัน ?"
1103	1	1	"ฉันสามารถใช้การประชุม V-CUBE บนแม็คหรือไม่ ?"
1104	1	1	"ฉันสามารถตั้งค่าการประชุม V CUBE ภายในอินทราเน็ต?"
1105	1	1	"ฉันสามารถเช่ากล้องเว็บหรือไม่ ?"
1106	1	1	"V-cube ปลอดภัยอย่างไร?"
1107	1	1	"มีระยะเวลาสัญญาขั้นต่ำ ?"
1108	1	1	
1201	1	2	"มี ID และรหัสผ่านเท่าไหร่ ที่จะได้รับต่อสัญญา?"
1202	1	2	"มันเป็นไปได้ที่จะเชื่อมต่อได้มากกว่า 10 จุด"
1203	1	2	
1204	1	2	"ฉันจะเริ่มต้นการประชุมของฉันโดยไม่ต้องเปิดเผย ID และรหัสผ่านของฉันได้อย่างไร"
1205	1	2	"เป็นไปได้หรือไม่ที่จะเข้าร่วมในการประชุมโดไม่มี ID?"
1206	1	2	"ฉันสามารถมีหลายการประชุมกับ 1 บัญชีผู้ใช้ และรหัสผ่านได้ไหม?"
1207	1	2	"ฉันสามารถใช้ไฟล์และเปิดใช้โปรแกรมร่วมกันบนเครื่องพีซีของฉันได้ไหม"
1208	1	2	"ฉันสามารถคัดลอกเนื้อหาของไวท์บอร์ดไปยังคลิปบอร์ด หรือในทางกลับกันได้ไหม ?"
1209	1	2	
1210	1	2	
1211	1	2	"บอกข้อดีของการใช้การประชุม V-CUBE ที่เหนือกว่าบริการอื่นๆ"
1212	1	2	"ฉันจำเป็นต้องมีอุปกรณ์พิเศษสำหรับการประชุม V-CUBE หรือไม่ ?"
1213	1	2	"จะเกิดอะไรขึ้นถ้าเซิร์ฟเวอร์ล่ม คุณจะหาทางแก้ไขมันอย่างไร"
1214	1	2	"ฉันสามารถลองใช้แพ็คเกจห้องประชุมก่อนซื้อบริการได้ไหม ?"
1215	1	2	"ฉันสามารถเชื่อมต่อการประชุม V-CUBE ไปยังระบบประชุมผ่านเว็บที่มีอยู่ปัจจุบันได้หรือไม่?"
1216	1	2	
1217	1	2	"ฉันจะต้องมีแบนด์วิธมากสำหรับการประชุมระหว่าง 10 สถานที่หรือไม่"
1218	1	2	"มีกี่อัตราเฟรมที่การประชุม V-CUBE ใช้งาน"
2201	2	2	"มีราคาเริ่มต้นหรือไม่ ?"
2202	2	2	"บอกฉันเกี่ยวกับแพคเกจการประชุม"
2203	2	2	"โปรดบอกรายละเอียดฉันเกี่ยวกับการกำหนดราคาของคุณ"
2204	2	2	"กรณีที่ฉับปิดบัญชีแล้ว ฉันจะต้องจ่ายค่าเริ่มต้นอีกครั้ง สำหรับการเริ่มใช้บริการใหม่หรือ?"
2205	2	2	"มีข้อจำกัดเกี่ยวกับจำนวนของผู้ใช้ในห้องหรือไม่ ?"
3101	3	1	"ฉันสามารถใช้บริการ V-cube แม้ว่าคอมพิวเตอร์ของฉันอยู่หลังไฟร์วอลล์หรือไม่ (reverse proxy or NAT) ?"
3102	3	1	"ตัวแปลงสัญญาณวิดีโอ/เสียงชนิดใดจะถูกนำมาใช้ ?"
3103	3	1	"โปรโตคอลและพอร์ตชนิดใดที่ใช้ ?"
3104	3	1	"ชนิดของการรักษาความปลอดภัยใด ที่จะใช้ในการเข้าสู่ระบบการติดต่อสื่อสารผ่าน ID, วิดีโอ, เสียงและข้อมูล"
3105	3	1	"คุณแนะนำให้ใช้กล้องเว็บแบบไหน ?"
3106	3	1	
3107	3	1	
3108	3	1	
4101	4	1	"ฉันไม่สามารถเข้าไปในห้องประชุมเพราะโปรแกรมหยุด โดยวัดจากความเร็วในการเชื่อมต่อ"
4102	4	1	"ฉันเห็นข้อความข้อผิดพลาดเมื่อวัดความเร็วในการเชื่อมต่อคอมพิวเตอร์ (พร็อกซี่)"
4103	4	1	"มีความล่าช้ามาก"
4104	4	1	"ฉันไม่สามารถเห็นภาพของฉันได้"
4105	4	1	"ฉันไม่สามารถเห็นภาพผู้เข้าร่วมประชุมอื่น"
4106	4	1	"ผู้เข้าร่วมคนอื่นไม่สามารถได้ยินเสียงของฉัน"
4107	4	1	"ฉันไม่ได้ยินเสียงผู้เข้าร่วมประชุมอื่น"
4108	4	1	"ฉันควรทำอย่างไรถ้าระดับเสียงต่ำ?"
4109	4	1	"เสียงของฉันมีเสียงสะท้อน ฉันจะทำให้มันหายไปได้อย่างไร"
4110	4	1	"ฉันไม่ได้ยินเสียงที่คนอื่น แต่มีเสียงรบกวนมาก"
4111	4	1	"ไม่สามารถแสดง (หน้าต่างป็อปอัพถูกป้องกัน)"
4112	4	1	
5101	5	1	"ไมโครโฟนอันไหนที่ฉันสามารถใช้ได้ ที่คุณแนะนำ?"
5102	5	1	"ขอแนะนำให้ใช้ระบบของเราในด้านหน้า อาจมีความล่าช้าขณะหน้าต่างไปอยู่ด้านหลัง เนื่องจาก Mac กำลังประมวลผลจากด้านหน้าไปด้านหลัง"
5103	5	1	"ไม่สามารถเห็นภาพของฉัน"
5104	5	1	"ฉันไม่สามารถเห็นภาพผู้เข้าร่วมประชุมอื่นๆ"
5105	5	1	"ผู้เข้าร่วมคนอื่นไม่สามารถได้ยินเสียงของฉัน"
5106	5	1	"ฉันไม่ได้ยินเสียงผู้เข้าร่วมประชุมอื่น"
5107	5	1	"ฉันควรทำอย่างไรถ้าระดับเสียงต่ำ?"
5108	5	1	
